{
  "node": [
    {
      "name": "ab_in",
      "active": "ON",
      "channum": 5,
      "sample_rate": 8000
    },
    {
      "name": "gpio_in",
      "active": "ON",
      "filename": "++-+--"
    },
    {
      "name": "file_in",
      "active": "ON",
      "filename": "Vector\\vector_8000.wav"
    },
    {
      "name": "sc_in",
      "active": "OFF",
      "filename": "Microphone (Realtek High Definition Audio)",
      "channum": 2,
      "samplerate": 8000
    },
    {
      "name": "ab_out",
      "active": "ON",
      "src_des": [
        {
          "sId": 1,
          "name": "Wavefile CH1"
        },
        {
          "sId": 2,
          "name": "Wavefile CH2"
        },
        {
          "sId": 3,
          "name": "Wavefile CH3"
        },
        {
          "sId": 4,
          "name": "Wavefile CH4"
        },
		{
          "sId": 5,
          "name": "Wavefile CH5"
        },
        {
          "sId": 6,
          "name": "Wavefile CH6"
        },
        {
          "sId": 7,
          "name": "Wavefile CH7"
        },
        {
          "sId": 8,
          "name": "Wavefile CH8"
        }
      ]
    },
    {
      "name": "file_out",
      "active": "ON",
      "filename": "rectmp.wav",
      "src_des": [
        {
          "sId": 1,
          "name": "TDM/PDM s1"
        },
        {
          "sId": 2,
          "name": "TDM/PDM s2"
        },
        {
          "sId": 3,
          "name": "TDM/PDM s3"
        },
        {
          "sId": 4,
          "name": "TDM/PDM s4"
        },
        {
          "sId": 5,
          "name": "GPIO5(AVD)"
        },
        {
          "sId": 6,
          "name": "GPIO3(xSD)"
        },
        {
          "sId": 7,
          "name": "GPIO2(IRQ)"
        },
        {
          "sId": 8,
          "name": "TDM/PDM s5"
        },
      ]
    },
    {
      "name": "waveview",
      "active": "ON",
      "src_des": [
        {
          "sId": 1,
          "name": "TDM/PDM s1"
        },
        {
          "sId": 2,
          "name": "TDM/PDM s2"
        },
        {
          "sId": 3,
          "name": "TDM/PDM s3"
        },
        {
          "sId": 4,
          "name": "TDM/PDM s4"
        },
        {
          "sId": 5,
          "name": "GPIO5(AVD)"
        },
        {
          "sId": 6,
          "name": "GPIO3(xSD)"
        },
        {
          "sId": 7,
          "name": "GPIO2(IRQ)"
        },
        {
          "sId": 8,
          "name": "TDM/PDM s5"
        },
      ]
    },
    {
      "name": "sc_out",
      "active": "OFF",
      "filename": "Speakers (Realtek High Definition Audio)",
      "src_des": [
        {
          "sId": 1,
          "name": "TDM/PDM s1"
        },
        {
          "sId": 2,
          "name": "TDM/PDM s2"
        }
      ]
    }
  ],
  "command_bus": [
    {
      "name": "i2c",
      "active": "OFF",
      "format": "",
      "bclock": 400000
    },
    {
      "name": "spi",
      "active": "ON",
      "format": 0,
      "bclock": 12000000
    }
  ],
  "audio_bus": [
    {
      "name": "i2s",
      "active": "OFF",
      "sample_rate": 8000,
      "channum": 2,
      "m_s": "master",
      "format": [
        {
          "delay": "enable",
          "data_latch": "rising",
          "bit_len": 32,
          "bit_order": "msb"
        }
      ]
    },
    {
      "name": "tdm",
      "active": "OFF",
      "sample_rate": 8000,
      "channum": 8,
      "m_s": "master",
      "format": [
        {
          "delay": "enable",
          "data_latch": "rising",
          "bit_len": 32,
          "bit_order": "msb"
        }
      ]
    },
    {
      "name": "pcm",
      "active": "OFF",
      "sample_rate": 8000,
      "channum": 2,
      "m_s": "master",
      "format": [
        {
          "delay": "enable",
          "data_latch": "rising",
          "bit_len": 32,
          "bit_order": "msb"
        }
      ]
    },
    {
      "name": "pdm",
      "active": "ON",
      "sample_rate": 8000,
      "bclock": 1024000,
    }
  ],
  "code_vec": [
    {
      "code": "DSP\\iM501\\default\\",
      "vec": "DSP\\iM501\\default\\run.vec"
    }
  ]
}