{
  "node": [
    {
      "name": "ab_in",
      "active": "ON",
      "channum": 8,
      "sample_rate": 16000
    },
    {
      "name": "gpio_in",
      "active": "OFF",
      "filename": "-------"
    },
    {
      "name": "file_in",
      "active": "ON",
      "filename": "Vector\\vector_16000.wav"
    },
    {
      "name": "sc_in",
      "active": "OFF",
      "filename": "Microphone (Realtek High Definition Audio)",
      "channum": 2,
      "samplerate": 16000
    },
    {
      "name": "ab_out",
      "active": "ON",
      "src_des": [
        {
          "sId": 1,
          "name": "Wavefile CH1"
        },
        {
          "sId": 2,
          "name": "Wavefile CH1"
        },
        {
          "sId": 3,
          "name": "Wavefile CH1"
        },
        {
          "sId": 4,
          "name": "Wavefile CH1"
        },
        {
          "sId": 5,
          "name": "Wavefile CH1"
        },
        {
          "sId": 6,
          "name": "Wavefile CH1"
        },
        {
          "sId": 7,
          "name": "Wavefile CH1"
        },
        {
          "sId": 8,
          "name": "Wavefile CH1"
        }
      ]
    },
    {
      "name": "file_out",
      "active": "ON",
      "filename": "rectmp.wav",
      "src_des": [
        {
          "sId": 1,
          "name": "TDM/PDM s1"
        },
        {
          "sId": 2,
          "name": "TDM/PDM s2"
        },
        {
          "sId": 3,
          "name": "TDM/PDM s3"
        },
        {
          "sId": 4,
          "name": "TDM/PDM s4"
        },
        {
          "sId": 5,
          "name": "TDM/PDM s5"
        },
        {
          "sId": 6,
          "name": "TDM/PDM s6"
        },
        {
          "sId": 7,
          "name": "TDM/PDM s7"
        },
        {
          "sId": 8,
          "name": "TDM/PDM s8"
        }
      ]
    },
    {
      "name": "waveview",
      "active": "ON",
      "src_des": [
        {
          "sId": 1,
          "name": "TDM/PDM s1"
        },
        {
          "sId": 2,
          "name": "TDM/PDM s2"
        },
        {
          "sId": 3,
          "name": "TDM/PDM s3"
        },
        {
          "sId": 4,
          "name": "TDM/PDM s4"
        },
        {
          "sId": 5,
          "name": "TDM/PDM s5"
        },
        {
          "sId": 6,
          "name": "TDM/PDM s6"
        },
        {
          "sId": 7,
          "name": "TDM/PDM s7"
        },
        {
          "sId": 8,
          "name": "TDM/PDM s8"
        }
      ]
    },
    {
      "name": "sc_out",
      "active": "OFF",
      "filename": "Speakers (Realtek High Definition Audio)",
      "src_des": [
        {
          "sId": 1,
          "name": "TDM/PDM s1"
        },
        {
          "sId": 2,
          "name": "TDM/PDM s2"
        }
      ]
    }
  ],
  "command_bus": [
    {
      "name": "i2c",
      "active": "OFF",
      "format": "",
      "bclock": 400000
    },
    {
      "name": "spi",
      "active": "ON",
      "format": 0,
      "bclock": 12000000
    }
  ],
  "audio_bus": [
    {
      "name": "i2s",
      "active": "OFF",
      "channum": 8,
      "sample_rate": 16000,
      "m_s": "master",
    "format": [
    {
      "bclk_polarity": "normal",
      "bit_len": 16,
      "delay": "enable",
      "bit_order": "msb",
    },
    ],
    },
    {
      "name": "pcm",
      "active": "OFF",
      "channum": 8,
      "sample_rate": 48000,
      "m_s": "master",
    "format": [
    {
      "bclk_polarity": "normal",
      "bit_len": 16,
      "delay": "enable",
      "bit_order": "msb",
    },
    ],
    },
    {
      "name": "pdm",
      "active": "ON",
      "sample_rate": 16000,
      "bclock": 2048000,
    }
  ],
  "version": [
    {
      "script": "V1.2.3",
      "uif": "[UIF2.0][HW:V2.3][FW:H:V2.49][FW:A:V2.42]",
    },
  ],
  "code_vec": [
    {
      "code": "Code_vec\\iM501\\default\\",
      "vec": "Code_vec\\iM501\\default\\run.vec"
    }
  ]
}